{
  "properties": [
    {
      "name": "ldap.use",
      "type": "java.lang.Boolean",
      "description": "Should Spring Boot use the LDAP Configuration or the inmemory user (username & password = user)."
    },
    {
      "name": "ldap.domain",
      "type": "java.lang.String",
      "description": "Domain of the LDAP Configuration."
    },
    {
      "name": "ldap.url",
      "type": "java.lang.String",
      "description": "URL of the LDAP Configuration."
    },
    {
      "name": "inMemoryUser.username",
      "type": "java.lang.String",
      "description": "Username of the in Memory User."
    },
    {
      "name": "inMemoryUser.password",
      "type": "java.lang.String",
      "description": "Password of the in Memory User."
    },
    {
      "name": "mapbox.api-token",
      "type": "java.lang.String",
      "description": "Api Key for the Mapbox api."
    },
    {
      "name": "cors.allowedOrigin",
      "type": "java.lang.String"
    }
  ] }